<?xml version="1.0" encoding="UTF-8" standalone="no"?>
<svg
   viewBox="0 0 56.279 56.078"
   version="1.1"
   id="svg4"
   sodipodi:docname="mastodon.svg"
   inkscape:version="1.1.2 (0a00cf5339, 2022-02-04)"
   xmlns:inkscape="http://www.inkscape.org/namespaces/inkscape"
   xmlns:sodipodi="http://sodipodi.sourceforge.net/DTD/sodipodi-0.dtd"
   xmlns="http://www.w3.org/2000/svg"
   xmlns:svg="http://www.w3.org/2000/svg">
  <defs
     id="defs8" />
  <sodipodi:namedview
     id="namedview6"
     pagecolor="#ffffff"
     bordercolor="#666666"
     borderopacity="1.0"
     inkscape:pageshadow="2"
     inkscape:pageopacity="0.0"
     inkscape:pagecheckerboard="0"
     showgrid="false"
     inkscape:zoom="12.821428"
     inkscape:cx="28.155991"
     inkscape:cy="28.039"
     inkscape:window-width="2001"
     inkscape:window-height="1270"
     inkscape:window-x="0"
     inkscape:window-y="27"
     inkscape:window-maximized="1"
     inkscape:current-layer="svg4" />
  <path
     d="M 49.972 32.572 C 49.296 35.818 43.915 39.37 37.736 40.057 C 34.514 40.415 31.341 40.746 27.96 40.601 C 22.426 40.363 18.062 39.37 18.062 39.37 C 18.062 39.871 18.093 40.347 18.162 40.799 C 18.879 45.889 23.575 46.193 28.023 46.336 C 32.511 46.479 36.507 45.306 36.507 45.306 L 36.691 49.088 C 36.691 49.088 33.552 50.661 27.96 50.951 C 24.876 51.11 21.045 50.88 16.586 49.776 C 6.912 47.389 5.25 37.771 4.994 28.014 C 4.918 25.117 4.967 22.383 4.967 20.1 C 4.967 10.121 11.973 7.193 11.973 7.193 C 15.509 5.681 21.575 5.045 27.879 4.996 L 28.033 4.996 C 34.338 5.045 40.406 5.681 43.941 7.193 C 43.941 7.193 50.95 10.121 50.95 20.1 C 50.95 20.1 51.037 27.462 49.972 32.572 Z M 40.653 14.991 C 39.257 13.536 37.428 12.793 35.158 12.793 C 32.532 12.793 30.546 13.734 29.229 15.617 L 27.951 17.617 L 26.674 15.617 C 25.357 13.734 23.37 12.793 20.744 12.793 C 18.472 12.793 16.646 13.536 15.247 14.991 C 13.895 16.439 13.22 18.405 13.22 20.873 L 13.22 32.955 L 18.353 32.955 L 18.353 21.227 C 18.353 18.756 19.467 17.499 21.698 17.499 C 24.163 17.499 25.401 18.99 25.401 21.934 L 25.401 28.351 L 30.502 28.351 L 30.502 21.934 C 30.502 18.99 31.737 17.499 34.204 17.499 C 36.434 17.499 37.549 18.756 37.549 21.227 L 37.549 32.955 L 42.682 32.955 L 42.682 20.873 C 42.682 18.405 42.009 16.439 40.653 14.991 Z"
     style=""
     id="path2" />
  <path
     style="fill:#ffffff;stroke-width:0.0779944"
     d="m 13.259054,26.535561 c 0,-3.994671 0.03068,-6.625065 0.08211,-7.038998 0.406556,-3.272383 2.164605,-5.4589 5.121535,-6.369744 0.64234,-0.197864 0.779517,-0.211226 2.205826,-0.214862 1.25171,-0.0032 1.624423,0.02255 2.10585,0.145452 1.975921,0.504419 3.103318,1.389025 4.411841,3.461728 0.383238,0.607047 0.723554,1.104596 0.756259,1.105664 0.03271,0.0011 0.187298,-0.199869 0.343538,-0.446527 1.257935,-1.985904 1.810131,-2.6311 2.793179,-3.263603 1.223703,-0.787343 2.479648,-1.081992 4.369279,-1.025049 1.481755,0.04465 2.139213,0.192346 3.216206,0.722501 1.989071,0.979131 3.225855,2.641596 3.773932,5.072859 0.172103,0.763447 0.175045,0.871744 0.203831,7.50165 l 0.02921,6.72702 h -2.536174 -2.536174 l -0.02317,-6.415043 c -0.02308,-6.389197 -0.02387,-6.417098 -0.196109,-6.925314 -0.464369,-1.370153 -1.347847,-2.001239 -2.916377,-2.083226 -2.150488,-0.112405 -3.465552,0.879047 -3.853178,2.904983 -0.09071,0.47412 -0.114641,1.362819 -0.114641,4.258051 v 3.658877 h -2.534819 -2.534819 v -3.553306 c 0,-2.218994 -0.03257,-3.76393 -0.08672,-4.114206 -0.235555,-1.523511 -0.960421,-2.519708 -2.149356,-2.953901 -0.623828,-0.227818 -2.194988,-0.249798 -2.833559,-0.03964 -0.869033,0.286005 -1.461217,0.893253 -1.808152,1.854148 l -0.180706,0.500497 -0.02207,6.454039 -0.02207,6.45404 H 15.7913 13.259054 Z"
     id="path47" />
</svg>
