<?xml version="1.0" encoding="UTF-8" standalone="no"?>
<svg
   aria-labelledby="simpleicons-gitlab-icon"
   enable-background="new 0 0 24 24"
   height="3.33333in"
   role="img"
   style="shape-rendering:geometricPrecision; text-rendering:geometricPrecision; image-rendering:optimizeQuality; fill-rule:evenodd; clip-rule:evenodd"
   version="1.1"
   viewBox="0 0 3333 3333"
   width="3.33333in"
   xml:space="preserve"
   id="svg12"
   sodipodi:docname="gitlab.svg"
   inkscape:version="1.1.2 (0a00cf5339, 2022-02-04)"
   xmlns:inkscape="http://www.inkscape.org/namespaces/inkscape"
   xmlns:sodipodi="http://sodipodi.sourceforge.net/DTD/sodipodi-0.dtd"
   xmlns="http://www.w3.org/2000/svg"
   xmlns:svg="http://www.w3.org/2000/svg"><sodipodi:namedview
     id="namedview14"
     pagecolor="#ffffff"
     bordercolor="#666666"
     borderopacity="1.0"
     inkscape:pageshadow="2"
     inkscape:pageopacity="0.0"
     inkscape:pagecheckerboard="0"
     inkscape:document-units="in"
     showgrid="false"
     inkscape:zoom="2.2468773"
     inkscape:cx="159.7773"
     inkscape:cy="159.99984"
     inkscape:window-width="2001"
     inkscape:window-height="1270"
     inkscape:window-x="0"
     inkscape:window-y="27"
     inkscape:window-maximized="1"
     inkscape:current-layer="svg12" /><defs
     id="defs4"><style
       type="text/css"
       id="style2">
   <![CDATA[
    .fil0 {fill:black}
    .fil1 {fill:white}
   ]]>
  </style></defs><g
     id="Layer_x0020_1"><circle
       class="fil0"
       cx="1667"
       cy="1667"
       r="1667"
       id="circle6" /><g
       id="_809629360"><path
         class="fil1"
         d="M2577 1788l-102 -315 -203 -624c-10,-32 -56,-32 -66,0l-203 624 -673 0 -202 -624c-11,-32 -56,-32 -67,0l-202 623 -103 316c-9,28 1,60 26,77l885 643 885 -643c24,-17 34,-49 25,-77z"
         id="path8" /></g></g><path
     style="fill:#666666;stroke-width:0.445062"
     d="M 152.21125,319.73391 C 128.39986,318.1051 108.8043,312.93439 88.789895,302.9988 44.115529,280.82147 11.833717,237.99824 2.9147489,189.08166 -0.4511393,170.62127 -0.45829235,149.25871 2.8953346,131.10089 8.806585,99.095122 23.950862,70.38355 47.167208,47.167208 73.36017,20.974245 106.22862,5.2322314 143.31001,1.1205829 150.88636,0.28050375 167.40576,0.15224125 174.68689,0.87696177 213.38955,4.7292004 248.1971,21.469742 274.8572,49.053453 c 41.43349,42.868901 55.54651,104.659907 36.85019,161.341147 -11.01012,33.37916 -33.59303,62.87969 -63.36272,82.77204 -20.9455,13.99594 -45.52599,22.93967 -70.60933,25.69151 -6.29437,0.69055 -20.90375,1.19181 -25.52409,0.87576 z m 50.35772,-109.45255 c 22.85118,-16.58765 42.11625,-30.68129 42.81126,-31.3192 0.69501,-0.63791 1.5462,-1.70066 1.89152,-2.36166 1.3628,-2.6086 2.55213,1.42501 -19.9205,-67.56028 -8.9656,-27.522164 -9.44165,-28.879492 -10.33882,-29.47855 -0.87295,-0.58288 -3.74525,-0.35945 -4.45093,0.346236 -0.61103,0.611021 -3.8732,10.331476 -16.75946,49.938974 l -3.65622,11.23782 h -32.15938 -32.15938 l -1.81507,-5.67455 c -11.15467,-34.87351 -17.92854,-55.137115 -18.59443,-55.624022 -1.07056,-0.782815 -3.95638,-0.70825 -4.78836,0.123723 -0.37883,0.378837 -3.181482,8.339886 -6.228106,17.691219 -20.015125,61.4346 -24.301029,74.9101 -24.301029,76.40591 0,0.99329 0.409333,2.2688 1.018329,3.1732 1.335427,1.98317 86.130946,63.69608 87.169666,63.44077 0.40331,-0.0991 19.42972,-13.75194 42.28091,-30.33959 z"
     id="path53"
     transform="scale(10.415636)" /></svg>
